…
D select count(distinct c.doi) from c;
┌───────────────────────┐
│ count(DISTINCT c.doi) │
│         int64         │
├───────────────────────┤
│             146148863 │
└───────────────────────┘
Run Time (s): real 42.851 user 609.590649 sys 238.632413

D select c.doi, count(*) from c group by c.doi;
100% ▕████████████████████████████████████████████████████████████▏ ^P
┌────────────────────────────────────────┬──────────────┐
│                  doi                   │ count_star() │
│                varchar                 │    int64     │
├────────────────────────────────────────┼──────────────┤
│ 10.1080/21645515.2021.1950506          │           28 │
│ 10.1016/j.asr.2022.03.027              │            2 │
│ 10.1007/bf00345956                     │            4 │
│ 10.3390/s20236982                      │           30 │
│ 10.1186/s13071-020-04206-y             │            3 │
│ 10.1016/j.corsci.2017.08.026           │            6 │
│ 10.4103/2277-8632.117195               │           11 │
│ 10.1039/c7ra07694k                     │           25 │
│ 10.3390/plants11172214                 │           12 │
│ 10.1016/j.chemosphere.2006.02.041      │           10 │
│ 10.1097/mpg.0b013e3182a27463           │            5 │
│ 10.3390/nu13020526                     │           27 │
│ 10.1016/j.enpol.2020.111467            │           36 │
│ 10.1109/apsipa.2016.7820744            │            6 │
│ 10.3171/jns.1960.17.6.0945             │           41 │
│ 10.1016/j.snb.2018.07.023              │           36 │
│ 10.1039/c3sm50582k                     │           15 │
│ 10.3171/jns-07/09/0617                 │           29 │
│ 10.1016/j.cma.2019.07.028              │           34 │
│ 10.1021/a1980011o                      │           10 │
│         ·                              │            · │
│         ·                              │            · │
│         ·                              │            · │
│ 10.1002/9781394163878.ch4              │            1 │
│ 10.1007/978-981-16-8679-5_154          │            1 │
│ 10.1515/9781399503952-003              │            1 │
│ 10.5771/9783800594528                  │            1 │
│ 10.1515/9780691225784-013              │            1 │
│ 10.1039/d2ra02784d                     │            1 │
│ 10.21055/preprints-3112116             │            1 │
│ 10.56369/tsaes.3473                    │            1 │
│ 10.18574/nyu/9781479812547.003.0015    │            1 │
│ 10.1201/9781003358961-37               │            1 │
│ 10.29003/m2956.sudak.ns2022-18/341-342 │            1 │
│ 10.51737/2766-4775.2022.059            │            1 │
│ 10.1007/978-981-16-8679-5_30           │            1 │
│ 10.53771/ijstra.2022.3.1.0077          │            1 │
│ 10.21832/9781800415973-001             │            1 │
│ 10.14361/9783839457009-015             │            1 │
│ 10.11159/htff22.143                    │            1 │
│ 10.3138/9781487512088-fm               │            1 │
│ 10.20378/irb-54906                     │            1 │
│ 10.1525/aft.2005.32.6.2                │            1 │
├────────────────────────────────────────┴──────────────┤
│ 146148863 rows (40 shown)                   2 columns │
└───────────────────────────────────────────────────────┘
…
Example of one of the most changed doc:

```sql
D select * from c where c.doi = '10.17163/ret.n10.2015.01';
┌──────────────────────────┬────────────┬────────────┬────────────┬────────┬──────────────────────────────────┐
│           doi            │     c      │     d      │     i      │ member │                h                 │
│         varchar          │    date    │    date    │    date    │ int32  │             varchar              │
├──────────────────────────┼────────────┼────────────┼────────────┼────────┼──────────────────────────────────┤
│ 10.17163/ret.n10.2015.01 │ 2017-01-17 │ 2022-05-30 │ 2022-05-30 │   6739 │ 89164a3235a54c33aaa57bbc6f86432f │
│ 10.17163/ret.n10.2015.01 │ 2017-01-17 │ 2022-07-20 │ 2022-07-20 │   6739 │ 242ee202a358a5f10d74e6767892f0be │
│ 10.17163/ret.n10.2015.01 │ 2017-01-17 │ 2022-07-22 │ 2022-07-22 │   6739 │ a515b654cbc86e7d291a52df66837194 │
│ 10.17163/ret.n10.2015.01 │ 2017-01-17 │ 2022-07-31 │ 2022-07-31 │   6739 │ 7985857e7d830e2484a2f442c3dc914d │
│ 10.17163/ret.n10.2015.01 │ 2017-01-17 │ 2022-08-03 │ 2022-08-03 │   6739 │ e1a1c82bb941c03862d56d787c557aff │
│ 10.17163/ret.n10.2015.01 │ 2017-01-17 │ 2022-08-08 │ 2022-08-08 │   6739 │ 7f5af81c6d066421c7918e169927c739 │
│ 10.17163/ret.n10.2015.01 │ 2017-01-17 │ 2022-08-09 │ 2022-08-09 │   6739 │ ef2b523046aa133632d05a784741846d │
│ 10.17163/ret.n10.2015.01 │ 2017-01-17 │ 2022-08-28 │ 2022-08-28 │   6739 │ fa1e9eebd87b7fdecba3278db3edcb51 │
│ 10.17163/ret.n10.2015.01 │ 2017-01-17 │ 2022-08-29 │ 2022-08-29 │   6739 │ f4a96ab65d677808671ae18ef25d9a30 │
│ 10.17163/ret.n10.2015.01 │ 2017-01-17 │ 2022-08-30 │ 2022-08-30 │   6739 │ 789dd340c16a5115d6aac71483effdb9 │
│ 10.17163/ret.n10.2015.01 │ 2017-01-17 │ 2022-08-31 │ 2022-08-31 │   6739 │ 1657283a68ebeb463d3b981e9f661bc4 │
│ 10.17163/ret.n10.2015.01 │ 2017-01-17 │ 2022-09-02 │ 2022-09-02 │   6739 │ d3e0b2132171de643ed7d3e7c24ae046 │
│ 10.17163/ret.n10.2015.01 │ 2017-01-17 │ 2022-09-03 │ 2022-09-03 │   6739 │ f962a1162e3c858cccc945ca307b39ba │
│ 10.17163/ret.n10.2015.01 │ 2017-01-17 │ 2022-09-04 │ 2022-09-04 │   6739 │ 6d01107c974c8fec5cba1c33c07f4c92 │
│ 10.17163/ret.n10.2015.01 │ 2017-01-17 │ 2022-09-06 │ 2022-09-06 │   6739 │ 4fd2c437a8b2190741c7e63a384a1217 │
│ 10.17163/ret.n10.2015.01 │ 2017-01-17 │ 2022-09-10 │ 2022-09-10 │   6739 │ e873a8836600410241907d82bae9b1d7 │
│ 10.17163/ret.n10.2015.01 │ 2017-01-17 │ 2022-09-11 │ 2022-09-11 │   6739 │ daa3cfb16c72a22501d7e8b5797c838c │
│ 10.17163/ret.n10.2015.01 │ 2017-01-17 │ 2022-09-12 │ 2022-09-12 │   6739 │ 4bbba5047823e19a36113f4f13a73f80 │
│ 10.17163/ret.n10.2015.01 │ 2017-01-17 │ 2022-09-13 │ 2022-09-13 │   6739 │ c636f48e104574857299fcfd5ad525c7 │
│ 10.17163/ret.n10.2015.01 │ 2017-01-17 │ 2022-09-19 │ 2022-09-20 │   6739 │ 58b65bb8272bb832e9bf5710dfc0f870 │
│            ·             │     ·      │     ·      │     ·      │     ·  │                ·                 │
│            ·             │     ·      │     ·      │     ·      │     ·  │                ·                 │
│            ·             │     ·      │     ·      │     ·      │     ·  │                ·                 │
│ 10.17163/ret.n10.2015.01 │ 2017-01-17 │ 2023-05-15 │ 2023-05-15 │   6739 │ e8f3d85b9a23e710dfe69cd396fc01ec │
│ 10.17163/ret.n10.2015.01 │ 2017-01-17 │ 2023-05-16 │ 2023-05-16 │   6739 │ 302bd7ecacd585ac884bdefeb995ae88 │
│ 10.17163/ret.n10.2015.01 │ 2017-01-17 │ 2023-05-22 │ 2023-05-22 │   6739 │ 05df7a37dd50c12e916a849a9b984810 │
│ 10.17163/ret.n10.2015.01 │ 2017-01-17 │ 2023-05-23 │ 2023-05-23 │   6739 │ c0e4fd76a6a5580607330f51a9491d22 │
│ 10.17163/ret.n10.2015.01 │ 2017-01-17 │ 2023-05-24 │ 2023-05-24 │   6739 │ d7e8da9e9bde55be8d88838a9823b21c │
│ 10.17163/ret.n10.2015.01 │ 2017-01-17 │ 2023-05-25 │ 2023-05-25 │   6739 │ a7e7b7ad4fb61ac9369c7009182dde05 │
│ 10.17163/ret.n10.2015.01 │ 2017-01-17 │ 2023-05-26 │ 2023-05-26 │   6739 │ 499b39c16ea9b029f479cc22eb7d1229 │
│ 10.17163/ret.n10.2015.01 │ 2017-01-17 │ 2023-05-27 │ 2023-05-27 │   6739 │ 5c90ccb2a427545d69304a16cbc5226f │
│ 10.17163/ret.n10.2015.01 │ 2017-01-17 │ 2023-05-28 │ 2023-05-28 │   6739 │ 30534e80870751db7d62e5e6881c8f97 │
│ 10.17163/ret.n10.2015.01 │ 2017-01-17 │ 2023-05-29 │ 2023-05-29 │   6739 │ 8c428e8c048e7478c67ff21623a9dfc7 │
│ 10.17163/ret.n10.2015.01 │ 2017-01-17 │ 2023-05-30 │ 2023-05-30 │   6739 │ a68c947c8744d041584d90bba2176300 │
│ 10.17163/ret.n10.2015.01 │ 2017-01-17 │ 2023-05-31 │ 2023-05-31 │   6739 │ e81f424dd61c9fe60314ba1e15e53007 │
│ 10.17163/ret.n10.2015.01 │ 2017-01-17 │ 2023-06-01 │ 2023-06-01 │   6739 │ fec833f9eb521ddfdfe1264270fbc966 │
│ 10.17163/ret.n10.2015.01 │ 2017-01-17 │ 2023-06-03 │ 2023-06-03 │   6739 │ e3cca0a3dae723cd2d2455a77a0cc19a │
│ 10.17163/ret.n10.2015.01 │ 2017-01-17 │ 2023-06-04 │ 2023-06-04 │   6739 │ 7ebad69be4b4ae9e19be7a44441136b5 │
│ 10.17163/ret.n10.2015.01 │ 2017-01-17 │ 2023-06-06 │ 2023-06-06 │   6739 │ f004682291aa70c2aff1099344e31f58 │
│ 10.17163/ret.n10.2015.01 │ 2017-01-17 │ 2023-06-07 │ 2023-06-07 │   6739 │ 4359a40928fc55b2b01d040f655ae697 │
│ 10.17163/ret.n10.2015.01 │ 2017-01-17 │ 2023-06-08 │ 2023-06-08 │   6739 │ 0b52031519932ee8ef2c69d7ec697cbb │
│ 10.17163/ret.n10.2015.01 │ 2017-01-17 │ 2023-06-10 │ 2023-06-10 │   6739 │ 86653e54997317d0b4d6a8d1155d04a2 │
│ 10.17163/ret.n10.2015.01 │ 2017-01-17 │ 2023-06-13 │ 2023-06-13 │   6739 │ cee93eb9fdfd6a7fc1457d479f3abdec │
├──────────────────────────┴────────────┴────────────┴────────────┴────────┴──────────────────────────────────┤
│ 99 rows (40 shown)                                                                                6 columns │
└─────────────────────────────────────────────────────────────────────────────────────────────────────────────┘
```
…
